{
	"data": [
		{
		"id" : 1,
		"tieude": "Chào Mừng Đến Với Lớp Học Đề Cao Thực Lực 3",
		"poster": "https://cdn.animevietsub.io/data/poster/2023/12/07/animevsub-mzv5Xxg7Tx.jpg",
		"namphathanh" : "2024",
		"diemdanhgia" : "9.8",
		"theloai":[
			"",
			"action"
			
		] ,
		"anh":[
			"https://cdn.animevietsub.io/data/poster/2023/12/07/animevsub-mzv5Xxg7Tx.jpg",

			"https://cdn.animevietsub.io/data/poster/2023/12/07/animevsub-mzv5Xxg7Tx.jpg",
			"https://cdn.animevietsub.io/data/poster/2023/12/07/animevsub-mzv5Xxg7Tx.jpg"

		]

		},

		{
		"id" : 2,
		"tieude": "Đại Chiến Người Khổng Lồ Mùa Cuối - Đại Kết Cục",
		"poster": "https://cdn.animevietsub.io/data/poster/2023/02/15/animevsub-PlK8m6ONhg.jpg",
		"namphathanh" : "2023",
		"diemdanhgia" : "9.5",
		"xuatxu":"japan",
		"theloai":[
			"anime",
			"comedy"
		] ,
		"anh":[
			"https://cdn.animevietsub.io/data/poster/2023/02/15/animevsub-PlK8m6ONhg.jpg",

			"https://cdn.animevietsub.io/data/poster/2023/02/15/animevsub-PlK8m6ONhg.jpg",
			"https://cdn.animevietsub.io/data/poster/2023/02/15/animevsub-PlK8m6ONhg.jpg"

		]

		},

		{
		"id" : 3,
		"tieude": "Cạo Râu Xong, Tôi Nhặt Gái Về Nhà",
		"poster": "https://cdn.animevietsub.io/data/poster/2021/03/14/animevsub-Qqo46sYsgR.png",
		"namphathanh" : "2021",
		"diemdanhgia" : "9.2",
		"xuatxu":"japan",
		"theloai":[
			"học ",
			"comedy",
			
		] ,
		"anh":[
			"https://cdn.animevietsub.io/data/poster/2021/03/14/animevsub-Qqo46sYsgR.png",

			"https://cdn.animevietsub.io/data/poster/2021/03/14/animevsub-Qqo46sYsgR.png",
			"https://cdn.animevietsub.io/data/poster/2021/03/14/animevsub-Qqo46sYsgR.png"

		]

		},

		{
		"id" : 4,
		"tieude": "Nhà Khoa Học Rơi Vào Lưới Tình, Thử Giải Mã Nào Mùa 2",
		"poster": "https://cdn.animevietsub.io/data/poster/2022/04/15/animevsub-AdRPiwsJ19.jpg",
		"namphathanh" : "2022",
		"diemdanhgia" : "7.9",
		"xuatxu":"japan",
		"theloai":[
			"drama",
			"học đường"
		] ,
		"anh":[
			"https://cdn.animevietsub.io/data/poster/2022/04/15/animevsub-AdRPiwsJ19.jpg",

			"https://cdn.animevietsub.io/data/poster/2022/04/15/animevsub-AdRPiwsJ19.jpg",
			"https://cdn.animevietsub.io/data/poster/2022/04/15/animevsub-AdRPiwsJ19.jpg"

		]

		},

		{
		"id" : 5,
		"tieude": "Liar Liar",
		"poster": "https://animehay.me//upload/poster/3831.jpg",
		"namphathanh" : "2022",
		"diemdanhgia" : "9.3",
		"xuatxu":"japan",
		"theloai":[
			"lãng mạng",
			"game",
			"comedy",
			"học đường"
		] ,
		"anh":[
			"https://animehay.me//upload/poster/3831.jpg",

			"https://animehay.me//upload/poster/3831.jpg",
			"https://animehay.me//upload/poster/3831.jpg"

		]

		},

		{
		"id" : 6,
		"tieude": "Otonari no Tenshi-sama ni Itsunomanika Dame Ningen ni Sareteita Ken",
		"poster": "https://animehay.me//upload/poster/3680.jpg",
		"namphathanh" : "2023",
		"diemdanhgia" : "9.7",
		"xuatxu":"japan",
		"theloai":[
			"drama",
			"tình cảm"

		] ,
		"anh":[
			"https://animehay.me//upload/poster/3680.jpg",

			"https://animehay.me//upload/poster/3680.jpg",
			"https://animehay.me//upload/poster/3680.jpg"

		]

		},

		{
		"id" : 7,
		"tieude": "Fuufu Ijou, Koibito Miman.",
		"poster": "https://animehay.me//upload/poster/3623.jpg",
		"namphathanh" : "2022",
		"diemdanhgia" : "8.9",
		"xuatxu":"japan",
		"theloai":[
			"drama",
			"tình cảm",
			"học đường"
		] ,
		"anh":[
			"https://animehay.me//upload/poster/3623.jpg",

			"https://animehay.me//upload/poster/3623.jpg",
			"https://animehay.me//upload/poster/3623.jpg"

		]

		}




		
	],
	"metadata":{
			"current_page":"1",
			"per_page":10,
			"page_count":25,
			"total_count": 250
		}
}
	
